Smoking and Covid-19
…
adult=
  adult%>%
  mutate(smoke = recode(smoke,"never smoker"="never smoker",
      "current every day smoker"="current smoker",
      "current some day smoker"="current smoker",
      "former smoker"="former smoker",
  ))%>%
  filter(smoke %in% c("never smoker","current smoker","former smoker"))

adult

## # A tibble: 62,179 × 23
##     year smoke  sex      age orient education  race   hispanic_origin disability
##    <dbl> <chr>  <chr>  <dbl> <chr>  <chr>      <chr>  <chr>           <chr>     
##  1  2019 never… male      97 strai… associate… black… not hispanic    no        
##  2  2019 curre… female    28 strai… associate… white  not hispanic    no        
##  3  2019 never… male      72 strai… some coll… white  not hispanic    no        
##  4  2019 never… male      60 strai… associate… hispa… other hispanic  no        
##  5  2019 curre… male      60 strai… some coll… white  not hispanic    no        
##  6  2019 never… male      78 strai… some coll… black… not hispanic    no        
##  7  2019 never… male      32 strai… bachelor'… white  not hispanic    no        
##  8  2019 curre… male      61 strai… high scho… white  not hispanic    no        
##  9  2019 never… male      28 strai… some coll… white  not hispanic    no        
## 10  2019 forme… male      85 strai… grade 1-11 white  not hispanic    no        
## # … with 62,169 more rows, and 14 more variables: health <chr>, cancer <chr>,
## #   asthma <chr>, copd <chr>, dementia <chr>, diabetes_type <chr>,
## #   heart_disease <chr>, hypertention <chr>, anxiety <chr>, depression <chr>,
## #   bmi <chr>, pregnant <chr>, stroke <chr>, immune_weaken <chr>
…
education_df=
  adult%>%
  group_by(smoke,education)%>%
  summarise(n=n())%>%
  filter(education%in%c("never attended/kindergarten only","grade 1-11","12th grade, no diploma","GED or equivalent","high school graduate","some college, no degree","associate degree:occupational...","associate degree: academic","bachelor's degree","doctoral degree"))%>%
  group_by(education)%>%
  mutate(sum=sum(n))%>%
  mutate(percentage=n/sum)
education_df

## # A tibble: 27 × 5
## # Groups:   education [9]
##    smoke          education                            n   sum percentage
##    <chr>          <chr>                            <int> <int>      <dbl>
##  1 current smoker 12th grade, no diploma             186   876     0.212 
##  2 current smoker associate degree: academic         725  5709     0.127 
##  3 current smoker bachelor's degree                  939 14093     0.0666
##  4 current smoker doctoral degree                     50  1359     0.0368
##  5 current smoker GED or equivalent                  469  1405     0.334 
##  6 current smoker grade 1-11                         908  4222     0.215 
##  7 current smoker high school graduate              2397 13888     0.173 
##  8 current smoker never attended/kindergarten only    13   145     0.0897
##  9 current smoker some college, no degree           1479  9977     0.148 
## 10 former smoker  12th grade, no diploma             187   876     0.213 
## # … with 17 more rows
…
#Bmi
bmi_df=
  adult%>%
  group_by(year,smoke,bmi)%>%
  filter(!bmi%in%c("don't know","refused","missing","unknown"))%>%
  summarise(n=n())%>%
  mutate(bmi_year=str_c(bmi,year))%>%
  group_by(bmi_year)%>%
  mutate(sum=sum(n))%>%
  mutate(percentage=n/sum)
bmi_df

## # A tibble: 24 × 7
## # Groups:   bmi_year [8]
##     year smoke          bmi                n bmi_year             sum percentage
##    <dbl> <chr>          <chr>          <int> <chr>              <int>      <dbl>
##  1  2019 current smoker healthy weight  1459 healthy weight2019  9722      0.150
##  2  2019 current smoker obese           1278 obese2019           9776      0.131
##  3  2019 current smoker overweight      1370 overweight2019     10418      0.132
##  4  2019 current smoker underweight       95 underweight2019      498      0.191
##  5  2019 former smoker  healthy weight  2114 healthy weight2019  9722      0.217
##  6  2019 former smoker  obese           2735 obese2019           9776      0.280
##  7  2019 former smoker  overweight      2847 overweight2019     10418      0.273
##  8  2019 former smoker  underweight       92 underweight2019      498      0.185
##  9  2019 never smoker   healthy weight  6149 healthy weight2019  9722      0.632
## 10  2019 never smoker   obese           5763 obese2019           9776      0.590
## # … with 14 more rows
…
